<?xml version="1.0" encoding="utf-8"?>
<!-- Generator: Adobe Illustrator 24.0.3, SVG Export Plug-In . SVG Version: 6.00 Build 0)  -->
<svg version="1.1" xmlns="http://www.w3.org/2000/svg" xmlns:xlink="http://www.w3.org/1999/xlink" x="0px" y="0px"
	 viewBox="0 0 350 440" style="enable-background:new 0 0 350 440;" xml:space="preserve">
<style type="text/css">
	.st0{fill:#FDF898;}
	.st1{fill:#E4DF71;}
	.st2{fill:none;stroke:#000000;stroke-width:3;stroke-linecap:round;stroke-miterlimit:10;}
	.st3{stroke:#000000;stroke-width:3;stroke-linecap:round;stroke-miterlimit:10;}
</style>
<g id="Calque_1">
</g>
<g id="Calque_4">
	<g>
		<polygon class="st0" points="184.32,93.09 152.85,89.65 121.91,94.34 98.09,104.08 74.73,122.54 59.64,146.55 50.69,165.91 
			46.68,183.37 45.73,198.32 46.6,213.03 46.19,221.8 45.51,226.65 34.11,229.54 23.17,237.57 18.44,250.4 19.51,261.3 
			25.18,271.01 33.14,279.52 44.81,284.92 73.26,287.49 82.3,287.67 79.13,292.77 81.18,297.98 84.22,299.47 79.95,315.44 
			77.82,347.35 77.77,367.15 78.13,410.26 79.28,420.74 83.49,419.38 92.37,391.37 100.32,400.02 112.3,408.94 126.19,413.76 
			138.66,416.34 149.86,417.13 159.76,416.85 161.53,422.98 163.6,431.12 167.24,433.02 170.97,428.98 176.78,416.99 208.29,417.13 
			216.54,417.13 214.42,422.24 215.89,424.58 256.7,424.71 272.89,422.91 279.4,419.84 287.1,409.05 292.32,391.36 293.25,388.38 
			303.2,384.42 312.59,377.08 320.22,361.99 321.62,355.56 320.54,344.31 315.98,330.87 313.23,326.01 309.36,322.1 307.06,322.1 
			306.42,335.79 305.18,348.81 303.19,356.77 299.08,362.94 294.55,365.69 293.39,336.52 293.42,305.82 291.08,267.8 287.5,237.23 
			283.98,216.63 278.45,193.08 270.8,169.97 264.39,155.72 256.88,143.92 248.6,133.38 235.64,122.3 233.42,120.61 232.94,96.2 
			227.35,83.72 220.16,77.46 215.53,75.06 205.18,77.11 193.32,85.05 		"/>
		<path class="st1" d="M96.71,300.93c0,0,68.96-11.04,86.91-20.49c8.69-4.58,10.45-10.09,10.45-10.09l-28.13,8.74l-38.84,6.55
			l-24.91,2.07H87.92l-5.62-0.03l-4.17,5.1l2.05,6.21l10.22,2.18L96.71,300.93z"/>
		<polygon class="st1" points="107.54,99.77 87.96,86.85 72.84,79.51 65.37,76.96 60.67,78.37 59.14,95.25 58.14,137.28 
			59.64,146.55 70.22,129.71 89.29,109.45 		"/>
		<polygon class="st1" points="171.03,116.09 180.14,104.36 195.05,91.1 207.44,85.23 210.65,85.98 213.02,96.11 213.51,118.39 
			211.23,138.8 207.44,151.81 201.48,156.91 169.83,116.87 		"/>
		<polygon class="st1" points="77.13,355.56 77.13,410.26 80.28,420.74 82.24,421.02 91.49,399.11 93.37,391.63 83.9,376.2 		"/>
		<path class="st1" d="M206.04,363.82c-30.68,38.84,10.5,47.01,10.5,47.01l-21,6.02l19.86,0.28l6.13-4.89l1.6-3.23l-8-2.02
			l-5.4-5.45l-7-11.08l-0.88-13.19L206.04,363.82z"/>
		<path class="st1" d="M219.79,413.99c0,0,43.58,3.62,43.58-7.53l-24.79,4.37l-16.2-0.32L219.79,413.99z"/>
		<path class="st1" d="M294.55,365.69l-1.3,22.7l13.8-6.86c0,0-0.03-16.02-7.97-18.59L294.55,365.69z"/>
		<path class="st2" d="M208.48,260.46c-19.03,19.03-82.31,28.44-127.34,27.81c-19.72-0.28-35.94-2.48-43.42-6.64
			C7.83,265,16.54,228.46,42.25,228.46c6.57,0,3.15-24.92,3.15-31.49c0-30.37,18.47-77.1,62.14-97.2
			c20.06-9.23,45.44-12.85,76.78-6.68"/>
		<path class="st2" d="M81.14,288.26c0,0-4.24,2.91-2.93,7.83c1.58,5.96,17.41,5.35,17.41,5.35"/>
		<path class="st2" d="M83.07,300.01c-2.81,6.12-4.56,24.88-5.48,45.3c-1.26,28.02,0.37,59.01,0.37,65.04
			c0,33.63,14.42-18.98,14.42-18.98"/>
		<path class="st2" d="M158.97,416.92c-82.93,5.47-81.39-71.6-81.39-71.6"/>
		<path class="st2" d="M157.09,351.8c0,109.7,11.72,99.17,30.65,22.54"/>
		<path class="st2" d="M246.54,331.29c-67.66,28.31-47.79,79.64-15.6,79.64c31.24,0,36.03-7.86,36.03-7.86"/>
		<path class="st2" d="M175.58,416.92c29.78,0,40.45,0.28,40.45,0.28"/>
		<path class="st2" d="M221.89,410.92c-7.44,5.99-10.5,13.78-5.69,13.78c4.81,0,42.45,0.44,56.45-1.75s19.69-28.3,19.69-33.62
			s16.14-221.94-58.23-267.45"/>
		<path class="st2" d="M107.54,99.77c-32.23-22.94-46.39-25.6-47.78-19.62c-1.39,5.98-1.39,67.57-1.39,67.57"/>
		<path class="st2" d="M93.69,107.56c0,0-21.85-23.34-25.4-19.8c-3.54,3.54-1.35,7.79-1.35,7.79"/>
		<path class="st2" d="M160.59,119.28c10.09-17.16,46.43-47.44,55.51-43.9s8.07,98.41-10.6,98.41"/>
		<path class="st2" d="M230.7,150.59c2.25-37.08,9.59-63.72-14.6-75.21"/>
		<path class="st2" d="M169.09,118.16c7.28-12.38,33.5-34.23,40.06-31.68c6.56,2.55,5.83,71.01-7.65,71.01"/>
		<path class="st2" d="M131.62,301.46c18.42,5.85,19.9,24.28,19.9,24.28"/>
		<path class="st2" d="M292.35,389.33c15.38-3.43,31.56-21.69,29.01-40.1c-2.56-18.41-13.79-33.5-14.37-23.75
			c-1.46,24.6-1.46,36.47-13.16,40.71"/>
		<path class="st3" d="M35.63,250.15c-11.58-7.51-11.58-13.03-11.58-13.03s19.34-11.25,31.74,1.14
			C62.6,245.07,35.63,250.15,35.63,250.15z"/>
		<path class="st2" d="M35.63,250.15c0,0,4.18,25.13-14.38,14.14"/>
		<path class="st2" d="M36.43,250.99c0,0-2.35,34.76,31.21,12.66"/>
	</g>
</g>
</svg>
