<?xml version="1.0" encoding="utf-8"?>
<!-- Generator: Adobe Illustrator 24.0.3, SVG Export Plug-In . SVG Version: 6.00 Build 0)  -->
<svg version="1.1" id="Calque_13" xmlns="http://www.w3.org/2000/svg" xmlns:xlink="http://www.w3.org/1999/xlink" x="0px" y="0px"
	 viewBox="0 0 350 440" style="enable-background:new 0 0 350 440;" xml:space="preserve">
<style type="text/css">
	.st0{fill:#D995A0;}
	.st1{fill:#A97780;}
	.st2{fill:none;stroke:#141412;stroke-width:3;stroke-linecap:round;stroke-miterlimit:10;}
	.st3{fill:none;stroke:#141412;stroke-width:3;stroke-linecap:round;stroke-linejoin:round;stroke-miterlimit:10;}
</style>
<polygon class="st0" points="167.08,91.6 143.35,89.16 120.92,90.93 100.97,97.25 82.49,109.41 67.14,126.89 57.69,144.7 
	49.75,171.92 48.46,188.62 48.68,218.6 45.99,225.91 40.2,234.09 38.16,246.81 42.45,260.42 50.82,271.82 65.96,281.33 76.8,283.54 
	75.19,288.41 77.01,293.94 79.7,297.04 75.08,331.01 76.05,357.23 85.28,380.79 95.8,393.51 109.97,405.02 125.86,411.1 
	155.59,413.43 157.41,414.2 159.78,425.15 163.32,429.14 166.11,428.8 174.48,412.87 212.91,413.65 211.62,419.73 219.57,421.83 
	274.63,418.52 283.44,408.78 289.95,395.66 303.75,394.01 311.53,388.12 314.25,376.47 310.53,364.21 302.89,353.25 291.79,341.2 
	290.79,335.24 289.53,302.77 287,275.78 284.01,246.26 279.56,219.41 270.06,184.14 261.02,157.49 248.12,135.02 232.71,118.45 
	226.52,115.16 230.51,101.39 228.65,78.45 219.88,63.86 206.65,57.08 193.96,56.46 181.93,61.6 171.89,75.02 167.71,88.1 "/>
<polygon class="st1" points="119.88,89.7 115.17,76.81 107.52,69.38 97.22,67.11 81.33,72.72 69.12,84.4 63.09,101.38 62.65,121.7 
	63.97,131.26 75.45,115.48 92.66,101.84 "/>
<polygon class="st1" points="186.68,105.78 204.43,110.84 209.72,105.39 211.23,91.76 205.94,78.53 200.09,74.83 192.15,77.55 
	186.11,86.12 184.03,95.65 "/>
<polygon class="st1" points="71.35,224.93 76.86,228.37 88.55,227 89.22,223.55 83.37,218.22 78.7,217.7 73.52,220.11 "/>
<path class="st1" d="M190.41,270.19c-11.02,27.02-97.35,26.33-97.35,26.33l-13.36-1.2l-4.17-5.34l1.28-6.44l74.87,1.79l21.37-4.65
	L190.41,270.19z"/>
<polygon class="st1" points="74.31,346.64 76.33,416.33 78.35,417.93 89.7,388.45 79.6,369.07 "/>
<path class="st1" d="M197.89,413.12l15.02,0.52c0,0,38.45-0.36,46.53-10.3l-20.36,4.33l-19.9-1.12c0,0-12.14-6.39-13.99-10.41
	c-11.19-24.35-1.87-38.45-1.87-38.45s-23.16,32.36-0.47,47.42l-16.17,8.01H197.89z"/>
<path class="st1" d="M291.64,353.25l-1.49,34.68l-1.09,6.24l8.63,0.1l10.82-3.99C308.52,390.27,316.46,372.27,291.64,353.25z"/>
<path class="st2" d="M78.51,283.35c0,0-4.25,2.93-2.95,7.9c1.58,6.01,17.48,5.4,17.48,5.4"/>
<path class="st2" d="M80.45,295.21c-2.82,6.18-4.58,25.12-5.5,45.73c-1.27,28.28,0.37,59.57,0.37,65.65
	c0,33.95,14.47-19.16,14.47-19.16"/>
<path class="st2" d="M156.65,413.21c-83.25,5.52-81.7-72.28-81.7-72.28"/>
<path class="st2" d="M154.76,347.49c0,110.73,11.76,100.1,30.77,22.75"/>
<path class="st2" d="M244.55,326.77c-67.92,28.58-47.97,80.39-15.66,80.39c31.36,0,36.17-7.93,36.17-7.93"/>
<path class="st2" d="M173.31,413.21c29.9,0,40.6,0.28,40.6,0.28"/>
<path class="st2" d="M219.81,407.16c-7.47,6.05-10.54,13.91-5.71,13.91s42.61,0.44,56.67-1.77c14.06-2.21,19.77-28.56,19.77-33.94
	c0-5.38,10.56-224.44-64.09-270.38"/>
<path class="st2" d="M129.19,296.67c18.49,5.91,19.97,24.51,19.97,24.51"/>
<path class="st2" d="M89.79,224.03c2.82,4.21-16.66,7.2-18.62,0.54C71.17,224.57,79.36,208.48,89.79,224.03z"/>
<path class="st2" d="M79.36,229.1v9.88c0,0-2.52,7.05-8.89,7.9"/>
<path class="st2" d="M88.26,246.88c-4.91,0.52-8.89-7.9-8.89-7.9"/>
<path class="st2" d="M288.92,394.64c0,0,7.56,2.27,15.94-2.04c28.43-14.62-13.81-52.6-13.81-52.6"/>
<path class="st2" d="M120.3,89.69c0,0-4.31-24.05-22.9-21.62c-46.85,6.13-33.42,62.77-33.42,62.77"/>
<path class="st2" d="M170.14,112.49c-11.63-11.69,2.7-64.52,36.2-55.67s26.3,61.93,12.7,66.75"/>
<path class="st2" d="M186.81,105.71c-7.23-7.27,0.27-30.41,12.3-30.41c12.03,0,17.38,30.73,5.67,35.36"/>
<path class="st3" d="M166.59,92.97c-31.47-6.23-45.49-5.04-65.62,4.28c-43.84,20.29-52.75,67.46-52.75,98.11
	c0,6.63,1.5,27.1-3.16,31.78c-8.63,8.67-8.17,20.85-3.27,32c6.61,15.04,25.36,24.04,36.72,24.2c62.09,0.88,87.79,12.3,123.78-23.89"
	/>
</svg>
