<?xml version="1.0" encoding="utf-8"?>
<!-- Generator: Adobe Illustrator 24.0.3, SVG Export Plug-In . SVG Version: 6.00 Build 0)  -->
<svg version="1.1" xmlns="http://www.w3.org/2000/svg" xmlns:xlink="http://www.w3.org/1999/xlink" x="0px" y="0px"
	 viewBox="0 0 350 440" style="enable-background:new 0 0 350 440;" xml:space="preserve">
<style type="text/css">
	.st0{display:none;}
	.st1{display:inline;}
	.st2{fill:#DBEBF1;}
	.st3{fill:#A4CDCB;}
	.st4{fill:none;stroke:#000000;stroke-width:3;stroke-linecap:round;stroke-miterlimit:10;}
	.st5{fill:none;stroke:#000000;stroke-width:3;stroke-linecap:round;stroke-linejoin:round;stroke-miterlimit:10;}
	.st6{fill:#FCF797;}
	.st7{fill:#E3DE71;}
	.st8{fill:none;stroke:#141412;stroke-width:3;stroke-linecap:round;stroke-miterlimit:10;}
	.st9{fill:#141412;stroke:#141412;stroke-width:3;stroke-linecap:round;stroke-miterlimit:10;}
	.st10{display:inline;fill:none;}
	.st11{display:inline;fill:#FFFFFF;}
	.st12{display:inline;fill:none;stroke:#141412;stroke-width:3;stroke-linecap:round;stroke-linejoin:round;stroke-miterlimit:10;}
	
		.st13{display:inline;fill:#141412;stroke:#141412;stroke-width:3;stroke-linecap:round;stroke-linejoin:round;stroke-miterlimit:10;}
	.st14{display:inline;fill:none;stroke:#141412;stroke-width:7;stroke-linecap:round;stroke-miterlimit:10;}
	.st15{display:inline;fill:none;stroke:#141412;stroke-width:3;stroke-linecap:round;stroke-miterlimit:10;}
	.st16{display:inline;fill:#141412;stroke:#141412;stroke-width:3;stroke-miterlimit:10;}
	.st17{display:inline;fill:#141412;stroke:#141412;stroke-width:3;stroke-linecap:round;stroke-miterlimit:10;}
	.st18{display:inline;fill:#FCF797;}
	.st19{display:inline;opacity:0.37;fill:#FFFFFF;}
	.st20{display:inline;fill:#D995A0;}
	.st21{display:inline;opacity:0.44;fill:#77565C;}
	.st22{display:inline;opacity:0.17;}
	.st23{display:inline;fill:none;stroke:#141412;stroke-width:3;stroke-miterlimit:10;}
	.st24{fill:#D995A0;}
	.st25{opacity:0.25;fill:#FFFFFF;}
	.st26{fill:none;stroke:#141412;stroke-width:3;stroke-linecap:round;stroke-linejoin:round;stroke-miterlimit:10;}
</style>
<g id="Calque_1" class="st0">
	<g id="Calque_1_1_" class="st1">
	</g>
	<g id="Calque_3" class="st1">
		<polygon class="st2" points="170.5,95.32 144.24,90.74 126.24,91.61 111.89,97.3 93.89,109.46 73.99,125.58 58.3,141.27 
			51.14,157.36 47.62,177.74 45.69,196.63 41.79,217.28 42.23,232.47 46.17,247.46 53.3,260.79 62.98,272.84 77.76,286.09 
			81.31,287.75 78.21,292.73 79,296.83 83.24,299.5 78.55,330.8 78.13,351.55 82.51,371.57 92.55,391.96 110.62,407.1 
			128.74,414.28 154.52,416.48 157.31,416.48 159.89,415.78 162.05,426.99 164.52,431.91 167.76,431.91 172.67,424.31 
			177.21,416.48 214.14,416.76 214.76,422.57 217.42,424.28 272.95,422.52 283.82,414.68 290.4,400.36 294.9,402.86 303.05,401 
			305.67,391.96 311.51,389.5 313.96,385.34 314.55,373.65 318.44,368.9 324.42,362.92 327.49,356.42 321.89,348.92 319.47,344.83 
			323.11,340.02 325.11,331.68 321.43,324.69 312.45,323.31 307.6,313.1 303.66,309.17 290.99,309.17 284.4,251.64 271.46,192.51 
			261.65,165.72 248.51,141.67 238.58,129.4 225.04,118.38 238.58,78.3 244.38,54.66 248.51,29.47 248.03,16.2 244.16,8.94 
			236.74,8.99 219.39,16.1 203.11,27.32 191.06,40.87 183.12,54.1 174.29,77.32 		"/>
		<path class="st3" d="M303.38,338.59c-1.51-7.03-11.39-1.75-11.39-1.75l0.82,7.27v37.8l-1.65,15.56l1.65,4.69l7.89-0.62l3.43-2.06
			l2.57-9.33c0,0,5.24-0.29,6.08-1.62c2.91-4.65-4.22-21.53-4.22-21.53c8.43,0,6.43-13.21,1.47-16.75"/>
		<path class="st3" d="M310.03,350.24c3.44-8.09-6.66-11.65-6.66-11.65"/>
		<polygon class="st3" points="68.31,130.4 71.72,97.58 80.59,63.22 91.59,39.99 102.61,27.13 109.98,22.3 119.78,19.34 
			123.62,20.19 126.81,24.76 129.9,39.42 127.99,60.29 123.41,91.61 115.01,95.98 98.19,106.55 80.78,120.36 		"/>
		<path class="st3" d="M202.09,125.01l-10.42,8l-7.21-2.6v-30.33l4.44-24.37l11.88-22.51l13.35-11.76l6.37-2.75
			C220.51,38.67,172.51,74.77,202.09,125.01z"/>
		<path class="st3" d="M84.92,287.75h-3.61l-3.1,4.99l3.35,5.71l5.38,1.93h8.86c0,0,79.48-2.05,98.91-27.04l-17.7,9.37l-28.11,5.99
			h-38L84.92,287.75z"/>
		<polygon class="st3" points="77.76,354.59 77.76,386.04 78.27,415.04 79.36,421.15 82.33,419.25 92.55,391.96 84.92,377.71 
			78.98,360.33 		"/>
		<path class="st3" d="M194.24,416.76l22.04-5.69c0,0-28.07-6.94-13.39-42.17c0.53-1.27,1.11-2.57,1.75-3.91l-2.18,15.81l0.64,7.3
			l3.08,8.86l5.65,6.8l10.14,5.01l13.99,2.7l21.56-3.34c0,0-12.19,8.36-38.76,9.37l-9.88-0.73L194.24,416.76L194.24,416.76z"/>
		<path class="st4" d="M81.31,287.75c0,0-4.24,2.91-2.94,7.84c1.58,5.96,17.42,5.35,17.42,5.35"/>
		<path class="st4" d="M83.24,299.5c-2.81,6.13-4.56,24.9-5.48,45.33c-1.26,28.04,0.37,59.05,0.37,65.08
			c0,33.65,14.43-18.99,14.43-18.99"/>
		<path class="st4" d="M159.19,416.48c-82.99,5.48-81.44-71.65-81.44-71.65"/>
		<path class="st4" d="M157.31,351.33c0,109.77,11.73,99.23,30.67,22.55"/>
		<path class="st4" d="M246.81,330.8c-67.71,28.33-47.82,79.68-15.61,79.68c31.26,0,36.05-7.86,36.05-7.86"/>
		<path class="st4" d="M175.81,416.48c29.8,0,40.47,0.28,40.47,0.28"/>
		<path class="st4" d="M222.16,410.48c-7.44,6-10.51,13.79-5.69,13.79s42.47,0.44,56.49-1.75c14.01-2.19,19.7-28.31,19.7-33.64
			s6.8-224.96-67.61-270.5"/>
		<path class="st4" d="M131.82,300.95c18.44,5.86,19.91,24.29,19.91,24.29"/>
		<path class="st4" d="M73.99,227.37c1.95,6.6,16.44,6.13,18.56,1.57"/>
		<path class="st4" d="M82.16,232.47v18.79c0,0-8.17,4.87-8.17,8.17"/>
		<path class="st4" d="M91.72,259.43c-0.75-5.2-9.56-8.17-9.56-8.17"/>
		<path class="st4" d="M292.43,309.89c0,0,13.16-2.99,15.17,3.22c4.35,13.42,3.46,10.5,9.98,10.5c8.25,0,10.58,12.16,2.92,19.82
			c-5.42,5.42,8.11,7.91,6.99,14.52c-1.54,9.06-9.15,9.11-12.39,14.28c-2.7,4.31,2.19,17.77-5.8,17.77s-0.03,11.14-10.25,12.76
			c-9.27,1.47-8-4.66-8-4.66"/>
		<path class="st4" d="M170.17,147.66c-8.6-93.63,32.49-133.21,71.77-138.67c21.86-3.04-16.4,130.57-33.2,135.13"/>
		<path class="st4" d="M202.3,125.24c-7.29,7.29-18.1,12.73-18.1,2.83s-7.81-77.11,43.48-92.67"/>
		<path class="st5" d="M171.05,94.96c-31.37-6.17-44.89-7.3-63.32,4.9c-69.8,46.21-56.77,65.53-61.82,95.5
			c-3.3,19.62-9.59,37.72,5.73,62.85c8.74,14.34,26.11,29.53,29.67,29.53c61.9,0,91.54,8.79,127.42-27.09"/>
		<path class="st4" d="M67.36,132.12c0,0,5.71-106.7,52.41-112.78c18.53-2.41,3.49,73.02,3.49,73.02"/>
	</g>
</g>
<g id="Calque_3_1_" class="st0">
	<g class="st1">
		<polygon class="st6" points="185.23,91.49 152.56,88.81 121.78,93.48 98.07,104.17 70.35,129.67 59.82,146.42 51.91,165.69 
			47.92,183.06 46.98,197.94 47.84,212.58 47.44,221.3 45.76,226.13 34.41,229 24.52,238.98 20.81,248.76 21.88,259.61 25.84,269.6 
			35.44,277.74 47.05,283.12 79.22,286.78 82.37,286.85 79.22,291.92 81.25,297.11 84.28,298.59 81.02,314.48 78.9,346.23 
			78.85,365.92 79.22,408.82 80.36,419.25 83.55,417.89 94.34,389.14 100.3,397.64 112.22,406.52 126.04,412.31 138.45,414.87 
			149.59,415.66 159.44,415.38 161.2,421.48 163.26,428.59 166.89,431.47 170.6,427.45 176.38,415.52 207.73,415.66 215.94,415.66 
			213.83,420.74 215.3,423.07 255.9,423.2 272.01,421.41 278.48,418.35 286.15,407.62 291.34,390.02 292.27,387.06 302.16,383.11 
			311.51,375.81 319.11,360.8 320.5,354.4 319.42,343.21 314.88,329.83 312.15,324.99 308.3,321.1 306.01,321.1 305.38,334.73 
			304.14,347.68 302.16,355.6 298.07,361.73 293.56,364.47 292.41,335.45 292.44,304.9 290.11,267.07 286.55,236.65 283.04,216.16 
			277.54,192.73 269.93,169.73 263.55,155.55 256.08,142.82 247.84,132.33 234.94,121.3 232.73,120.61 233.25,96.33 227.69,83.91 
			219.54,75.69 214.93,73.3 204.63,77.33 192.84,85.23 		"/>
		<path class="st7" d="M96.7,300.03c0,0,68.62-10.98,86.48-20.39c8.65-4.56,10.39-10.04,10.39-10.04l-27.99,8.69l-38.65,6.52
			l-24.79,2.06h-14.2l-5.59-0.03l-3.15,5.08l2.04,5.18l9.18,2.17L96.7,300.03z"/>
		<polygon class="st7" points="107.39,97.72 88,85.04 72.96,77.72 65.52,76.19 61.84,77.59 60.31,95.38 60.31,137.2 59.82,146.42 
			70.35,129.67 89.33,109.51 		"/>
		<polygon class="st7" points="170.66,116.12 179.72,104.45 194.56,91.25 206.89,85.41 210.08,86.16 212.44,96.23 212.92,118.41 
			210.66,138.71 206.89,151.66 200.96,156.73 169.46,116.9 		"/>
		<polygon class="st7" points="79.22,354.4 79.22,408.82 80.36,419.25 82.31,419.53 91.51,397.73 93.39,390.28 83.54,371.51 		"/>
		<path class="st7" d="M205.49,362.62c-30.53,38.65,10.45,46.77,10.45,46.77l-20.89,5.99l19.76,0.28l6.1-4.86l1.59-3.21l-7.96-2.01
			l-5.37-5.42l-6.96-11.02l-0.87-13.13L205.49,362.62z"/>
		<path class="st7" d="M219.17,412.53c0,0,43.36,3.6,43.36-7.49l-24.66,4.35l-16.12-0.32L219.17,412.53z"/>
		<path class="st7" d="M293.56,364.47l-1.29,22.59l13.74-6.82c0,0-0.03-15.94-7.93-18.5L293.56,364.47z"/>
		<path class="st8" d="M207.92,259.77c-18.94,18.94-81.9,28.3-126.71,27.67c-19.62-0.28-35.76-2.47-43.21-6.61
			c-29.74-16.53-21.07-52.9,4.51-52.9c6.54,0,3.13-24.79,3.13-31.33c0-30.22,18.38-76.71,61.83-96.72
			c19.96-9.19,45.21-12.79,76.4-6.65"/>
		<path class="st8" d="M81.21,287.43c0,0-4.22,2.89-2.92,7.79c1.57,5.93,17.32,5.32,17.32,5.32"/>
		<path class="st8" d="M83.13,299.13c-2.79,6.09-4.54,24.76-5.45,45.07c-1.25,27.88,0.37,58.72,0.37,64.71
			c0,33.46,14.35-18.89,14.35-18.89"/>
		<path class="st8" d="M158.66,415.45c-82.52,5.45-80.98-71.25-80.98-71.25"/>
		<path class="st8" d="M156.79,350.66c0,109.15,11.66,98.67,30.5,22.43"/>
		<path class="st8" d="M245.79,330.24c-67.33,28.17-47.55,79.24-15.52,79.24c31.09,0,35.85-7.82,35.85-7.82"/>
		<path class="st8" d="M175.18,415.45c29.63,0,40.25,0.28,40.25,0.28"/>
		<path class="st8" d="M221.27,409.48c-7.4,5.96-10.45,13.71-5.66,13.71c4.79,0,42.24,0.44,56.17-1.74s19.59-28.16,19.59-33.45
			s16.06-220.84-57.94-266.12"/>
		<path class="st8" d="M107.48,99.88C75.41,77.05,61.33,74.41,59.94,80.35c-1.39,5.95-1.39,67.23-1.39,67.23"/>
		<path class="st8" d="M93.7,107.63c0,0-21.75-23.23-25.27-19.7c-3.52,3.52-1.35,7.75-1.35,7.75"/>
		<path class="st8" d="M160.27,119.3c10.04-17.07,46.2-47.2,55.24-43.69c9.04,3.51,8.03,97.92-10.54,97.92"/>
		<path class="st8" d="M230.03,150.45c2.24-36.9,9.54-63.4-14.52-74.84"/>
		<path class="st8" d="M168.73,118.17c7.25-12.32,33.34-34.06,39.86-31.52c6.52,2.54,5.8,70.66-7.61,70.66"/>
		<path class="st8" d="M131.44,300.57c18.33,5.83,19.8,24.16,19.8,24.16"/>
		<path class="st8" d="M291.37,388c15.3-3.42,31.41-21.58,28.86-39.9c-2.54-18.32-13.72-33.33-14.3-23.63
			c-1.46,24.48-1.46,36.29-13.09,40.51"/>
		<path class="st9" d="M35.93,249.51c-11.52-7.47-11.52-12.97-11.52-12.97s19.25-11.2,31.58,1.14
			C62.77,244.46,35.93,249.51,35.93,249.51z"/>
		<path class="st8" d="M35.93,249.51c0,0,4.16,25-14.31,14.07"/>
		<path class="st8" d="M36.73,250.35c0,0-2.34,34.58,31.05,12.59"/>
	</g>
</g>
<g id="Calque_2" class="st0">
	<polyline class="st10" points="298.39,192.34 120.17,192.34 120.17,135.64 	"/>
	<polygon class="st11" points="45.15,211.73 44.41,217.13 48.19,219.42 57.41,220.65 66.35,215.36 70.83,207.83 72.19,197.37 
		70.11,183.71 63.73,176.4 56.39,173.32 51.04,173.09 49.51,173.09 48.36,181.02 58.02,182.85 64.29,193.39 59.82,208.91 
		52.42,213.64 47.26,212.92 	"/>
	<polygon class="st11" points="93.38,190.95 97.43,181.02 110.38,172.68 128.24,172.35 142.11,183.94 146.01,192.88 146.01,206.54 
		138.72,219.11 129.23,225.44 114.15,227.47 101.48,222.58 93.7,212.04 92.55,203.39 	"/>
	<circle class="st12" cx="118.75" cy="199.44" r="28.03"/>
	<path class="st12" d="M49.86,173.6c25.92-3.87,27.04,32.44,14.19,43.55c-10.97,9.49-18.89,0.22-18.89,0.22"/>
	<circle class="st13" cx="112.58" cy="199.44" r="19.67"/>
	<path class="st13" d="M45.98,212.05c0,0,4.11,5.2,11.57-1.25c8.73-7.55,7.69-32.22-9.93-29.59"/>
	<line class="st14" x1="109.65" y1="164.95" x2="134.17" y2="164.95"/>
	<line class="st14" x1="53.83" y1="163.59" x2="70.35" y2="163.59"/>
</g>
<g id="Calque_4" class="st0">
	<polygon class="st11" points="49.34,172.79 47.9,181.73 52.41,183.44 47,214.45 68.18,214.94 73.24,207.01 72.26,192 68.48,182.47 
		64.29,177.47 58.98,174.38 52.86,173.43 	"/>
	<polygon class="st11" points="95.15,189.55 127.96,219.41 141.98,215.67 148.38,208.04 149.86,196.61 144.61,183.65 135.61,175.37 
		123.65,171.53 113.62,172.37 102.5,178.14 95.74,186.37 	"/>
	<path class="st15" d="M149.86,200.24c0,15.93-14.41,19.58-30.34,19.58s-27.34-3.65-27.34-19.58s12.91-28.84,28.84-28.84
		c6.74,0,12.93,2.31,17.84,6.18c1.64,1.29,3.13,2.75,4.45,4.36C147.4,186.92,149.86,193.3,149.86,200.24z"/>
	<path class="st15" d="M48.12,214.41c0,0-1.01-0.36,16.97,1.24c13.26,1.18,10.23-45.96-16.44-41.98"/>
	<circle class="st16" cx="114.67" cy="199.24" r="20.24"/>
	<path class="st17" d="M47,181.5c18.12-2.7,21.09,24.09,11.06,30.44c-5.89,3.73-10.93,1.53-10.93,1.53"/>
	<path class="st14" d="M110.53,163.16c18.06-7.04,31.03,0,31.03,0"/>
	<path class="st14" d="M52.24,162.44c0,0,12.2-6.32,20.91,0"/>
</g>
<g id="Calque_5" class="st0">
	<polygon class="st11" points="48.65,175.01 46,189.01 48.68,190.28 48.2,216.28 70.04,217.97 75.04,212.12 73.89,193.9 
		67.16,182.77 58.78,175.65 	"/>
	<polygon class="st11" points="97.96,204.53 99.11,190.28 108.37,177.88 120.99,171.93 134.04,172.78 144.71,178.97 152.23,190.28 
		154.45,208.73 153.85,215.48 149.43,216.14 131.2,214.39 104.35,214.39 	"/>
	<path class="st15" d="M154.06,199.86c0.66,24.3,4.7,14.44-28.33,14.44c-32.67,0-30.7,9.62-28.33-14.44
		c1.53-15.57,12.69-28.33,28.33-28.33S153.63,184.22,154.06,199.86z"/>
	<path class="st15" d="M48.9,173.95c26.2-3.91,35.01,48.22,18.42,43.82c-11.09-2.94-20.5-1.1-20.5-1.1"/>
	<path class="st17" d="M129.32,203.39c0.36,13.33,3.59,10.35-14.53,10.35c-17.92,0-16.84,5.28-15.54-7.92
		c0.84-8.54,6.96-15.54,15.54-15.54S129.09,194.81,129.32,203.39z"/>
	<path class="st17" d="M46.82,189.14c16.16-2.41,23.74,28.21,13.22,26.97c-6.84-0.8-13.22,0.55-13.22,0.55"/>
	<path class="st15" d="M341.61,310.6c-5.24-17.01-23.25-26.52-40.25-21.28"/>
	<path class="st15" d="M328.66,314.04c-3.2-10.36-14.17-16.16-24.53-12.97"/>
	<path class="st14" d="M109.86,163.36c18.06-7.04,31.03,0,31.03,0"/>
	<path class="st14" d="M51.56,162.64c0,0,12.2-6.32,20.91,0"/>
</g>
<g id="Calque_6" class="st0">
	<path class="st15" d="M89.91,208.71c10.29,51.8,74.79,35.68,73.76,1.72c0,0,49.4-23.32,57.42-23.32s11.1,9.25,8.02,13.56"/>
	<line class="st15" x1="92.85" y1="218.87" x2="161.98" y2="218.09"/>
	<path class="st12" d="M71.38,213.11H42.03l-0.24,9.06c13.46,16.81,33.03-1.7,31.49-12.75"/>
	<path class="st15" d="M91.16,215.61c-8.45-5.13-16.27-4.11-19.1,1.07"/>
</g>
<g id="Calque_7" class="st0">
	<polyline class="st18" points="97.71,58.81 108.43,81.87 109.87,86.92 90.69,102.89 76.78,124.38 74.2,136.35 78.87,139.29 
		108.31,127.96 118.17,125.17 122.59,128.24 123.94,132.47 133.46,122.88 153.14,99.09 154.35,114.16 158.56,113.59 162.33,104.13 
		161.57,90.68 132.56,76.2 97.71,58.81 	"/>
	<polyline class="st19" points="97.71,58.35 108.43,81.41 109.87,86.47 90.69,102.44 76.78,123.92 74.2,135.9 78.87,138.84 
		108.31,127.51 118.17,124.72 122.59,127.79 123.94,132.02 133.46,122.42 153.14,98.64 154.35,113.71 158.56,113.13 162.33,103.68 
		161.57,90.23 132.56,75.75 97.71,58.35 	"/>
	<path class="st12" d="M95.89,57.9l65.67,32.78c0,0,2.52,15.04-1.56,21.11c-7.36,10.93-6.86-12.69-6.86-12.69
		s-30.92,40.47-30.49,30.49c0.83-19.18-59.96,32.2-46.78-2.9s38.08-33.09,33.56-42.73C106.5,77.68,95.89,57.9,95.89,57.9z"/>
</g>
<g id="Calque_8" class="st0">
	<path class="st15" d="M163.27,178.37c-18.47,1.32-24.11-0.8-24.11-0.8s15.91,11.41,24.91,12.01"/>
</g>
<g id="Calque_9" class="st0">
	<polygon class="st20" points="79.76,291.54 77.73,299.8 81.49,322.11 83.11,327.66 99.89,344.44 99.89,346.51 91.32,350.24 
		85.43,360.82 88.81,372.53 98.99,377.11 107.04,376 114.07,370.29 116.63,359.71 110.46,349.97 103.55,345.41 101.63,344.44 
		104.08,341.99 137.55,324.41 201.18,288.95 253.05,260.05 287.42,240.9 288.65,238.09 282.99,215.03 282.21,211.82 269.79,219.31 
		224.6,246.54 132.17,302.7 111.7,314.6 101.63,320.67 99.28,317.24 83.75,298.75 	"/>
	<polygon class="st21" points="79.99,291.54 77.96,299.8 81.72,322.11 83.34,327.66 100.12,344.44 100.12,346.51 91.55,350.24 
		85.66,360.82 89.04,372.53 99.22,377.11 107.27,376 114.3,370.29 116.86,359.71 110.69,349.97 103.78,345.41 101.86,344.44 
		104.3,341.99 137.78,324.41 201.41,288.95 253.28,260.05 287.65,240.9 288.88,238.09 283.22,215.03 282.43,211.82 270.02,219.31 
		224.83,246.54 132.4,302.7 111.93,314.6 101.86,320.67 99.51,317.24 83.98,298.75 	"/>
	<path class="st15" d="M81.38,326.09c-1.62-11.53-3.39-27.29-3.66-35.67l23.9,30.25l180.58-108.85l6.9,28.14L101.63,344.44
		L81.38,326.09"/>
	<circle class="st15" cx="101.33" cy="361.81" r="15.3"/>
</g>
<g id="Calque_10" class="st0">
	<polyline class="st20" points="260.47,349.16 251.67,360.42 246.55,372.75 244.81,388.83 246.52,399.21 249.59,407.67 
		256.15,418.2 265.13,426.9 274.59,432.58 286.17,436.33 301.49,437 309.65,435.46 321.57,430.49 333.81,420.74 341.59,409.58 
		346.03,397.44 347.26,388.04 345.39,372.12 341.2,361.77 333.81,351.39 320.59,341.04 307.54,336.09 296.97,334.8 287.27,335.54 
		278.71,337.8 269.08,342.46 260.47,349.16 	"/>
	<polyline class="st22" points="260.05,349.43 251.24,360.68 246.13,373.01 244.39,389.1 246.1,399.48 249.16,407.94 255.73,418.46 
		264.71,427.17 274.17,432.85 285.75,436.6 301.07,437.27 309.23,435.72 321.15,430.76 333.39,421.01 341.17,409.84 345.61,397.7 
		346.84,388.31 344.96,372.39 340.78,362.04 333.39,351.65 320.17,341.3 307.12,336.35 296.54,335.07 286.85,335.81 278.29,338.07 
		268.65,342.73 260.05,349.43 	"/>
	<path class="st23" d="M347.3,386.04c0,21.23-12.91,39.44-31.3,47.22c-6.13,2.59-12.87,4.03-19.95,4.03
		c-28.3,0-51.25-22.94-51.25-51.25c0-7.08,1.43-13.82,4.03-19.95c7.78-18.39,25.99-31.3,47.22-31.3
		C324.36,334.79,347.3,357.74,347.3,386.04z"/>
	<path class="st23" d="M247.69,367.78c48.08,0,63.13,34.75,48.36,69.51"/>
	<path class="st23" d="M306.38,335.83c0,29.74,18.88,47.54,40.92,50.21"/>
	<path class="st23" d="M263.75,346.27c40.6,6.54,67.99,57.67,67.99,76.54"/>
	<path class="st23" d="M253.2,415.89c55.03-17.17,84.7-59.44,84.7-59.44"/>
</g>
<g id="Calque_11">
	<polyline class="st24" points="81.35,290.23 78.08,291.97 77.12,300.61 78.43,307.8 82.09,324.61 84.3,332.16 90.61,336.06 
		107.64,334.56 130.7,325.86 156.36,313.6 177.87,303 196.08,293.1 214.42,282.74 241.28,266.33 260.87,255.12 270.82,248.39 
		273.39,245.82 289.42,237.26 299.26,242.97 309.92,244.05 317.95,236.94 317.48,231.81 310.14,231.81 293.85,235.2 293.83,232.42 
		301.24,222.46 304.62,216.21 304.36,212.34 299.26,213.21 294.32,218.76 290.37,230.42 289.66,235.78 285.69,238.43 270.55,246.29 
		249.67,256.28 217.9,271.46 193.13,280.99 167.78,286.85 147.51,289.13 121.56,290.14 102.05,290.23 81.35,290.23 	"/>
	<polyline class="st25" points="81.35,290.23 78.08,291.97 77.12,300.61 78.43,307.8 82.09,324.61 84.3,332.16 90.61,336.06 
		107.64,334.56 130.7,325.86 156.36,313.6 177.87,303 196.08,293.1 214.42,282.74 241.28,266.33 260.87,255.12 270.82,248.39 
		273.39,245.82 289.42,237.26 299.26,242.97 309.92,244.05 317.95,236.94 317.48,231.81 310.14,231.81 293.85,235.2 293.83,232.42 
		301.24,222.46 304.62,216.21 304.36,212.34 299.26,213.21 294.32,218.76 290.37,230.42 289.66,235.78 285.69,238.43 270.55,246.29 
		249.67,256.28 217.9,271.46 193.13,280.99 167.78,286.85 147.51,289.13 121.56,290.14 102.05,290.23 81.35,290.23 	"/>
	<path class="st26" d="M289.42,237.26c0,0-38.97,18.63-67.79,32.45c-46.89,22.48-80.1,20.47-143.55,20.47"/>
	<path class="st26" d="M78.08,290.19c0,0-3.92,11.64,0.56,19.65c6.72,12.02,0.06,17.01,7.11,23.98
		c21.19,20.97,203.67-96.56,203.67-96.56"/>
	<path class="st26" d="M289.42,237.26c0,0,3.52-25.85,13.3-24.9S289.42,237.26,289.42,237.26"/>
	<path class="st26" d="M289.42,237.26c22.71,17.03,30.64-0.93,29.07-4.72C316.91,228.76,289.42,237.26,289.42,237.26z"/>
</g>
</svg>
